{
  "name": "Unity.BuildScripts.EditorTests",
  "references": [
    "MyCompany.MyFeature.Tools",
    "MyCompany.MyFeature.Planes",
    "Unity.RenderPipelines.HighDefinition.Runtime"
  ],
  "includePlatforms": [],
  "allowUnsafeCode": false,
  "overrideReferences": false,
  "precompiledReferences": [],
  "autoReferenced": true,
  "noEngineReferences": false
}